…
```

The `echo: false` option disables the printing of code (only output is displayed).

my_data \<- read_csv("\~Desktop/data_Viz/Data for BCB520.xlsx")

```{r}
library(dplyr)
library(ggplot2)
library(vroom)
library(readxl)
data
```

  # A tibble: 120 × 6
   Batch   Day trt       L     a     b
   <dbl> <dbl> <chr> <dbl> <dbl> <dbl>
 1     1     0 C      41.2  21.0  16.0
 2     2     0 C      42.6  17.8  16.2
 3     3     0 C      38.8  21.4  13.7
 4     4     0 C      40.3  23.8  17.1
 5     5     0 C      40.7  19.2  14.9
 6     6     0 C      40.5  21.2  15.1
 7     7     0 R      41.1  21.8  16.0
 8     8     0 R      43.3  22.1  17.5
 9     9     0 R      40.4  24.6  18  
10    10     0 R      41.0  22.6  16.8
# ℹ 110 more rows
# ℹ Use `print(n = ...)` to see more rows
…
